{
    "terminal.integrated.fontFamily": "Hack Nerd Font",
    "terminal.integrated.fontSize": 15,
    "editor.fontFamily": "Hack Nerd Font",
    "editor.fontLigatures": true,
    "workbench.startupEditor": "none",
    "security.workspace.trust.startupPrompt": "never"
}
